digraph IfElse{
START -> 72
72 -> 75
72 -> 73
73 -> 77
75 -> 77
77 -> FINISH

72 [label=" L# 72 if (x < 3)  USE: [1] DEF: [] "]
73 [label=" L# 73 x = 6 USE: [] DEF: [1] 
 DEAD"]
75 [label=" L# 75 x = 7 USE: [] DEF: [1] 
 DEAD"]
77 [label=" L# 77  USE: [] DEF: [] "]
}
