<?xml version="1.0" encoding="UTF-8" standalone="no"?><!DOCTYPE svg PUBLIC "-//W3C//DTD SVG 1.1//EN" "http://www.w3.org/Graphics/SVG/1.1/DTD/svg11.dtd"><!-- Generated by graphviz version 2.40.1 (20161225.0304)
 --><!-- Title: IfElse Pages: 1 --><svg xmlns="http://www.w3.org/2000/svg" xmlns:xlink="http://www.w3.org/1999/xlink" width="560pt" height="355pt" viewBox="0.00 0.00 559.94 354.83">
<g id="graph0" class="graph" transform="scale(1 1) rotate(0) translate(4 350.8313)">
<title>IfElse</title>
<polygon fill="#ffffff" stroke="transparent" points="-4,4 -4,-350.8313 555.939,-350.8313 555.939,4 -4,4"/>
<!-- START -->
<g id="node1" class="node">
<title>START</title>
<ellipse fill="none" stroke="#000000" cx="275.4695" cy="-328.8313" rx="41.7308" ry="18"/>
<text text-anchor="middle" x="275.4695" y="-324.6313" font-family="Times,serif" font-size="14.00" fill="#000000">START</text>
</g>
<!-- 72 -->
<g id="node2" class="node">
<title>72</title>
<ellipse fill="none" stroke="#000000" cx="275.4695" cy="-256.8313" rx="147.2119" ry="18"/>
<text text-anchor="middle" x="275.4695" y="-252.6313" font-family="Times,serif" font-size="14.00" fill="#000000"> L# 72 if (x &lt; 3)  USE: [1] DEF: [] </text>
</g>
<!-- START&#45;&gt;72 -->
<g id="edge1" class="edge">
<title>START-&gt;72</title>
<path fill="none" stroke="#000000" d="M275.4695,-310.6626C275.4695,-302.9622 275.4695,-293.8056 275.4695,-285.2479"/>
<polygon fill="#000000" stroke="#000000" points="278.9696,-285.2445 275.4695,-275.2446 271.9696,-285.2446 278.9696,-285.2445"/>
</g>
<!-- 75 -->
<g id="node3" class="node">
<title>75</title>
<ellipse fill="none" stroke="#000000" cx="133.4695" cy="-173.4156" rx="133.439" ry="29.3315"/>
<text text-anchor="middle" x="133.4695" y="-177.6156" font-family="Times,serif" font-size="14.00" fill="#000000"> L# 75 x = 7 USE: [] DEF: [1] </text>
<text text-anchor="middle" x="133.4695" y="-160.8156" font-family="Times,serif" font-size="14.00" fill="#000000"> DEAD</text>
</g>
<!-- 72&#45;&gt;75 -->
<g id="edge2" class="edge">
<title>72-&gt;75</title>
<path fill="none" stroke="#000000" d="M245.355,-239.141C229.0465,-229.5608 208.3724,-217.4161 189.2451,-206.1801"/>
<polygon fill="#000000" stroke="#000000" points="190.9822,-203.1414 180.587,-201.0941 187.4366,-209.177 190.9822,-203.1414"/>
</g>
<!-- 73 -->
<g id="node4" class="node">
<title>73</title>
<ellipse fill="none" stroke="#000000" cx="418.4695" cy="-173.4156" rx="133.439" ry="29.3315"/>
<text text-anchor="middle" x="418.4695" y="-177.6156" font-family="Times,serif" font-size="14.00" fill="#000000"> L# 73 x = 6 USE: [] DEF: [1] </text>
<text text-anchor="middle" x="418.4695" y="-160.8156" font-family="Times,serif" font-size="14.00" fill="#000000"> DEAD</text>
</g>
<!-- 72&#45;&gt;73 -->
<g id="edge3" class="edge">
<title>72-&gt;73</title>
<path fill="none" stroke="#000000" d="M305.7961,-239.141C322.2194,-229.5608 343.0392,-217.4161 362.3011,-206.1801"/>
<polygon fill="#000000" stroke="#000000" points="364.1459,-209.156 371.0202,-201.0941 360.6188,-203.1095 364.1459,-209.156"/>
</g>
<!-- 77 -->
<g id="node5" class="node">
<title>77</title>
<ellipse fill="none" stroke="#000000" cx="275.4695" cy="-90" rx="105.3798" ry="18"/>
<text text-anchor="middle" x="275.4695" y="-85.8" font-family="Times,serif" font-size="14.00" fill="#000000"> L# 77  USE: [] DEF: [] </text>
</g>
<!-- 75&#45;&gt;77 -->
<g id="edge5" class="edge">
<title>75-&gt;77</title>
<path fill="none" stroke="#000000" d="M180.3592,-145.8711C198.7956,-135.0409 219.6932,-122.7649 237.1949,-112.4838"/>
<polygon fill="#000000" stroke="#000000" points="239.157,-115.3905 246.0066,-107.3075 235.6115,-109.3548 239.157,-115.3905"/>
</g>
<!-- 73&#45;&gt;77 -->
<g id="edge4" class="edge">
<title>73-&gt;77</title>
<path fill="none" stroke="#000000" d="M371.2497,-145.8711C352.6834,-135.0409 331.6386,-122.7649 314.0136,-112.4838"/>
<polygon fill="#000000" stroke="#000000" points="315.5413,-109.323 305.1399,-107.3075 312.0142,-115.3695 315.5413,-109.323"/>
</g>
<!-- FINISH -->
<g id="node6" class="node">
<title>FINISH</title>
<ellipse fill="none" stroke="#000000" cx="275.4695" cy="-18" rx="42.2913" ry="18"/>
<text text-anchor="middle" x="275.4695" y="-13.8" font-family="Times,serif" font-size="14.00" fill="#000000">FINISH</text>
</g>
<!-- 77&#45;&gt;FINISH -->
<g id="edge6" class="edge">
<title>77-&gt;FINISH</title>
<path fill="none" stroke="#000000" d="M275.4695,-71.8314C275.4695,-64.131 275.4695,-54.9743 275.4695,-46.4166"/>
<polygon fill="#000000" stroke="#000000" points="278.9696,-46.4132 275.4695,-36.4133 271.9696,-46.4133 278.9696,-46.4132"/>
</g>
</g>
</svg>